[{
	"Id": 1,
	"Name": "Bank 1"
}, {
	"Id": 2,
	"Name": "Bank 2"
}, {
	"Id": 3,
	"Name": "Bank 3",
	"ChildrenDirect" :  [{ 
		"Id" : 5,
		"Name" : "Bank 5" ,
		"ChildrenDirect" : [
			{
			"Id" : 6,
			"Name" : "Bank 6"
		},{
			"Id" : 7,
			"Name" : "Bank 7"
		}
		]
	}]
}, {
	"Id": 4,
	"Name": "Bank 4"
}]